{
  "$schema": "https://json-schema.org/draft/2020-12/schema",
  "$id": "https://gitlab.com/GlitchyScripts/xlln-data/-/tree/main/.gitlab/titles.schema.json",
  "title": "XLiveLessNess titles",
  "description": "An array of GFWL titles",
  "type": "array",
  "uniqueItemProperties": ["TitleId"],
  "items": {
    "type": "object",
    "properties": {
      "TitleId": {
        "description": "The title ID of the title",
        "type": "string",
        "pattern": "^[0-9A-Fa-f]{8}$"
      },
      "Name": {
        "description": "The name of the title",
        "$ref": "#/$defs/name_string"
      },
      "NameShort": {
        "description": "The shortened name of the title",
        "$ref": "#/$defs/name_string"
      },
      "Versions": {
        "type": "array",
        "items": {
          "type": "object",
          "patternProperties": {
            "^[0-9A-Fa-f]{8}$": {
              "type": "string",
              "pattern": "^(?=[^. &,:'-])(?:(?!([\\[\\]()?. &,:'-])\\1+)[A-Za-z0-9\\p{L}\\p{N}\\[\\]()?. &,:'-])+(?<=[^. &,:'-])$"
            }
          },
          "additionalProperties": false
        }
      }
    },
    "required": ["TitleId", "Name", "Versions"],
    "additionalProperties": false
  },
  "$defs": {
    "name_string": {
      "type": "string",
      "pattern": "^(?=[^. &,:'-])(?:(?!([\\[\\](). &,:'-])\\1+)[A-Za-z0-9\\p{L}\\p{N}\\[\\](). &,:'-])+(?<=[^ &,:'-])$"
    }
  }
}
